{
  "presets": [
    ["@babel/preset-env", {
      "targets": { "node": "current" }
    }],
    [
      "@babel/preset-react",
      {
        "runtime": "automatic"
      }
    ],
    "@babel/preset-typescript"
  ],
  "plugins": [
    ["@babel/plugin-proposal-decorators", { "legacy": true }],
    [
      "babel-plugin-module-resolver",
      {
        "root": ["./src"],
        "alias": {
          "@": "./src/"
        }
      }
    ]
  ]
}
