// Jest Snapshot v1, https://goo.gl/fbAQLP

exports[`NextImage Test renders correctly 1`] = `
<div>
  <div
    class="next-image"
    data-testid="next-image-container"
  >
    <img
      alt="test image"
      layout="fill"
      src="/test.png"
    />
  </div>
</div>
`;
